<?xml version="1.0" encoding="UTF-8"?>
<session version="1.0">
<refactoring comment="Create Operation in PortType &apos;Process&apos;" description="Create Operation in PortType &apos;Process&apos;" flags="7" id="com.tibco.bw.core.design.refactoring.create.operation" stamp="1498471503517"/>
</session>